{
	"playlist":[
		{"trackName": "Astral Body", "artistName": "Between the Buried and Me", "albumName": "Paralax II", "albumCover": "http://i.imgur.com/d04PVht.jpg", "albumDate": "October 9, 2012", "artistURL": "http://www.betweentheburiedandme.com/", "genres": "progressive metal, melodic metal"}
	]
}