{
    "song": [
        {
            "Trackname": "Free Will",
            "Artist": "RUSH",
            "Album": "Permanent Waves",
            "AlbumURL": "../lab2stuff/permanentwaves.jpg",
            "Releasedate": 20130112,
            "Artistsite": "www.rush.com",
            "Genres": [
                {"Genre" : "Progressive"},
                {"Genre" : "Rock"}
            ]
        },
        {
            "Trackname": "Chameleon",
            "Artist": "Herbie Hancock",
            "Album": "Headhunters",
            "AlbumURL": "../lab2stuff/headhunters.jpg",
            "Releasedate": 19730925,
            "Artistsite": "www.herbiehancock.com",
            "Genres": [
                { "Genre" : "Modern Jazz"}
            ]
        },
        {
            "Trackname": "Limehouse Blues",
            "Artist": "Frank Vignola",
            "Album": "Blues for a Gypsy",
            "AlbumURL": "../lab2stuff/bluesforagypsy.jpg",
            "Releasedate": 20000525,
            "Artistsite": "www.frankvignola.com",
            "Genres": [
                {"Genre" : "Hot Club Jazz"}
            ]
        },
        {
            "Trackname": "In-A-Gadda-Da-Vida",
            "Artist": "Iron Butterfly",
            "Album": "In-A-Gadda-Da-Vida",
            "AlbumURL": "../lab2stuff/In-A-Gadda-Da-Vida.jpg",
            "Releasedate": 19680112,
            "Artistsite": "www.ironbutterfly.com",
            "Genres": [
                {"Genre" : "Classic Rock"}
            ]
        }
    ]
}