{
    "menuItem": [
        {
            "menuName": "Lab 2",
            "menuDesc": "HTML, CSS, XML",
            "menuURL": "lab2.html"
        },
        {
            "menuName": "Lab 3",
            "menuDesc": "Javascript & DOM",
            "menuURL": "lab3.html"
        },
        {
            "menuName": "Lab 4",
            "menuDesc": "AJAX / JSON",
            "menuURL": "lab4.html"
        },
        {
            "menuName": "Lab 5",
            "menuDesc": "JQuery/ Quiz 1",
            "menuURL": "lab5.html"
        },
        {
            "menuName": "Lab 6",
            "menuDesc": "Front End Optimization",
            "menuURL": "lab6.html"
        }
    ]
}